…
``` r
homicides_df |> 
  mutate(
    city_state = str_c(city, state, sep = ", ")) |> 
  group_by(city_state) |> 
  summarize(
    total_homicides = n(),
    unsol_homicides = sum(disposition %in% c("Closed without arrest", "Open/No arrest"))
  )
```

    ## # A tibble: 51 × 3
    ##    city_state      total_homicides unsol_homicides
    ##    <chr>                     <int>           <int>
    ##  1 Albuquerque, NM             378             146
    ##  2 Atlanta, GA                 973             373
    ##  3 Baltimore, MD              2827            1825
    ##  4 Baton Rouge, LA             424             196
    ##  5 Birmingham, AL              800             347
    ##  6 Boston, MA                  614             310
    ##  7 Buffalo, NY                 521             319
    ##  8 Charlotte, NC               687             206
    ##  9 Chicago, IL                5535            4073
    ## 10 Cincinnati, OH              694             309
    ## # ℹ 41 more rows
…
    ## Warning: There was 1 warning in `mutate()`.
    ## ℹ In argument: `prop_test_res = map(city_state, city_prop_test)`.
    ## Caused by warning in `prop.test()`:
    ## ! Chi-squared approximation may be incorrect

``` r
city_results
```

    ## # A tibble: 51 × 4
    ##    city_state      estimate conf.low conf.high
    ##    <chr>              <dbl>    <dbl>     <dbl>
    ##  1 Albuquerque, NM    0.386    0.337     0.438
    ##  2 Atlanta, GA        0.383    0.353     0.415
    ##  3 Baltimore, MD      0.646    0.628     0.663
    ##  4 Baton Rouge, LA    0.462    0.414     0.511
    ##  5 Birmingham, AL     0.434    0.399     0.469
    ##  6 Boston, MA         0.505    0.465     0.545
    ##  7 Buffalo, NY        0.612    0.569     0.654
    ##  8 Charlotte, NC      0.300    0.266     0.336
    ##  9 Chicago, IL        0.736    0.724     0.747
    ## 10 Cincinnati, OH     0.445    0.408     0.483
    ## # ℹ 41 more rows
…
